Israel Baby Names 1948-2023 • babynamesIL
…
Add the missing values:

library(dplyr)
#> 
#> Attaching package: 'dplyr'
#> The following objects are masked from 'package:stats':
#> 
#>     filter, lag
#> The following objects are masked from 'package:base':
#> 
#>     intersect, setdiff, setequal, union

babynamesIL %>%
    tidyr::complete(sector, year, sex, name, fill = list(n = 0, prop = 0))
#> # A tibble: 3,275,600 × 6
#>    sector     year sex   name          n  prop
#>    <chr>     <dbl> <chr> <chr>     <int> <dbl>
#>  1 Christian  1948 F     'ג'ורג'       0     0
#>  2 Christian  1948 F     אאוס          0     0
#>  3 Christian  1948 F     אבא           0     0
#>  4 Christian  1948 F     אבגיל         0     0
#>  5 Christian  1948 F     אבטיסאם       0     0
#>  6 Christian  1948 F     אבי           0     0
#>  7 Christian  1948 F     אבי-אברהם     0     0
#>  8 Christian  1948 F     אביאור        0     0
#>  9 Christian  1948 F     אביאל         0     0
#> 10 Christian  1948 F     אביב          0     0
#> # ℹ 3,275,590 more rows
…
