…
Add the missing values:

``` r
babynamesIL %>%
  tidyr::complete(sector, year, sex, name, fill = list(n = 0, prop = 0))
#> # A tibble: 3,133,900 x 6
#>      sector year sex    name n prop
#> 1 Christian 1948   F 'ג'ורג' 0    0
#> 2 Christian 1948   F    אאוס 0    0
#> 3 Christian 1948   F     אבא 0    0
#> 4 Christian 1948   F   אבגיל 0    0
#> 5 Christian 1948   F אבטיסאם 0    0
#> 6 Christian 1948   F     אבי 0    0
#> # ... with 3,133,894 more rows
```
…
