Israeli Baby Names (1949-2024) — babynamesIL • babynamesIL
…
# Names over time
babynamesIL |>
  filter(name == "\u05E0\u05D5\u05E2\u05DD", sector == "Jewish") |>
  select(year, sex, n, prop)
#> # A tibble: 126 × 4
#>     year sex       n     prop
#>    <dbl> <chr> <int>    <dbl>
#>  1  1949 M        26 0.000708
#>  2  1950 M        25 0.000643
#>  3  1951 M        21 0.000533
#>  4  1952 M        30 0.000761
#>  5  1953 M        34 0.000898
#>  6  1954 M        38 0.00103 
#>  7  1955 M        34 0.000915
#>  8  1956 M        28 0.000765
#>  9  1957 M        34 0.000935
#> 10  1958 M        60 0.00167 
#> # ℹ 116 more rows
…
