…
### Declining names

We can look for names that declined the most:

``` r
decline_names_overall <- babynamesIL %>%
    arrange(sector, sex, name, year) %>%
    group_by(sector, name, sex) %>%
    summarise(max_n = max(n), min_n = min(n), max_year = year[which.max(n)], min_year = year[which.min(n)], decline = 1 - (min_n / max_n), .groups = "drop") %>%
    filter(max_n >= 100, max_year < min_year) %>%
    filter(decline >= 0.95)
decline_names_overall %>%
    arrange(max_n)
#> # A tibble: 159 × 8
#>    sector name   sex   max_n min_n max_year min_year decline
#>    <chr>  <chr>  <chr> <int> <int>    <dbl>    <dbl>   <dbl>
#>  1 Jewish עפרה   F       100     5     1960     1989   0.95 
#>  2 Jewish דלית   F       102     5     1970     1997   0.951
#>  3 Jewish סלומון M       102     5     1949     2003   0.951
#>  4 Muslim גדיר   F       102     5     1990     2013   0.951
#>  5 Jewish ולרי   M       103     5     1963     1998   0.951
#>  6 Jewish לידיה  F       104     5     1949     1995   0.952
#>  7 Jewish מלי    F       104     5     1979     2003   0.952
#>  8 Jewish לירן   F       106     5     1984     2023   0.953
#>  9 Muslim היא    F       106     5     1993     2014   0.953
#> 10 Jewish עירית  F       110     5     1971     1991   0.955
#> # ℹ 149 more rows
```
…
